<?xml version="1.0" encoding="UTF-8" standalone="no"?>
<svg
   xmlns:dc="http://purl.org/dc/elements/1.1/"
   xmlns:cc="http://creativecommons.org/ns#"
   xmlns:rdf="http://www.w3.org/1999/02/22-rdf-syntax-ns#"
   xmlns:svg="http://www.w3.org/2000/svg"
   xmlns="http://www.w3.org/2000/svg"
   xmlns:sodipodi="http://sodipodi.sourceforge.net/DTD/sodipodi-0.dtd"
   xmlns:inkscape="http://www.inkscape.org/namespaces/inkscape"
   width="297.83133mm"
   height="73.212357mm"
   viewBox="0 0 297.83133 73.212357"
   version="1.1"
   id="svg2027"
   inkscape:version="1.0.2 (e86c870879, 2021-01-15, custom)"
   sodipodi:docname="tactos_core_color_mouse.svg">
  <defs
     id="defs2021">
    <marker
       style="overflow:visible"
       id="marker5017"
       refX="0"
       refY="0"
       orient="auto"
       inkscape:stockid="Arrow1Lend"
       inkscape:isstock="true">
      <path
         transform="matrix(-0.8,0,0,-0.8,-10,0)"
         style="fill:#000000;fill-opacity:1;fill-rule:evenodd;stroke:#000000;stroke-width:1pt;stroke-opacity:1"
         d="M 0,0 5,-5 -12.5,0 5,5 Z"
         id="path5015" />
    </marker>
    <marker
       style="overflow:visible"
       id="marker4852"
       refX="0"
       refY="0"
       orient="auto"
       inkscape:stockid="Arrow1Lend"
       inkscape:isstock="true">
      <path
         transform="matrix(-0.8,0,0,-0.8,-10,0)"
         style="fill:#000000;fill-opacity:1;fill-rule:evenodd;stroke:#000000;stroke-width:1pt;stroke-opacity:1"
         d="M 0,0 5,-5 -12.5,0 5,5 Z"
         id="path4850" />
    </marker>
    <marker
       style="overflow:visible"
       id="marker4021"
       refX="0"
       refY="0"
       orient="auto"
       inkscape:stockid="Arrow1Lend"
       inkscape:isstock="true">
      <path
         transform="matrix(-0.8,0,0,-0.8,-10,0)"
         style="fill:#000000;fill-opacity:1;fill-rule:evenodd;stroke:#000000;stroke-width:1pt;stroke-opacity:1"
         d="M 0,0 5,-5 -12.5,0 5,5 Z"
         id="path4019" />
    </marker>
    <marker
       style="overflow:visible"
       id="marker3808"
       refX="0"
       refY="0"
       orient="auto"
       inkscape:stockid="Arrow1Lend"
       inkscape:isstock="true">
      <path
         transform="matrix(-0.8,0,0,-0.8,-10,0)"
         style="fill:#000000;fill-opacity:1;fill-rule:evenodd;stroke:#000000;stroke-width:1pt;stroke-opacity:1"
         d="M 0,0 5,-5 -12.5,0 5,5 Z"
         id="path3806" />
    </marker>
    <marker
       style="overflow:visible"
       id="marker3686"
       refX="0"
       refY="0"
       orient="auto"
       inkscape:stockid="Arrow1Lend"
       inkscape:isstock="true"
       inkscape:collect="always">
      <path
         transform="matrix(-0.8,0,0,-0.8,-10,0)"
         style="fill:#000000;fill-opacity:1;fill-rule:evenodd;stroke:#000000;stroke-width:1pt;stroke-opacity:1"
         d="M 0,0 5,-5 -12.5,0 5,5 Z"
         id="path3684" />
    </marker>
    <marker
       style="overflow:visible"
       id="marker3312"
       refX="0"
       refY="0"
       orient="auto"
       inkscape:stockid="Arrow1Lend"
       inkscape:isstock="true">
      <path
         transform="matrix(-0.8,0,0,-0.8,-10,0)"
         style="fill:#000000;fill-opacity:1;fill-rule:evenodd;stroke:#000000;stroke-width:1pt;stroke-opacity:1"
         d="M 0,0 5,-5 -12.5,0 5,5 Z"
         id="path3310" />
    </marker>
    <marker
       style="overflow:visible"
       id="marker3102"
       refX="0"
       refY="0"
       orient="auto"
       inkscape:stockid="Arrow1Lend"
       inkscape:isstock="true">
      <path
         transform="matrix(-0.8,0,0,-0.8,-10,0)"
         style="fill:#000000;fill-opacity:1;fill-rule:evenodd;stroke:#000000;stroke-width:1pt;stroke-opacity:1"
         d="M 0,0 5,-5 -12.5,0 5,5 Z"
         id="path3100" />
    </marker>
    <marker
       style="overflow:visible"
       id="marker3046"
       refX="0"
       refY="0"
       orient="auto"
       inkscape:stockid="Arrow1Lend"
       inkscape:isstock="true"
       inkscape:collect="always">
      <path
         transform="matrix(-0.8,0,0,-0.8,-10,0)"
         style="fill:#000000;fill-opacity:1;fill-rule:evenodd;stroke:#000000;stroke-width:1pt;stroke-opacity:1"
         d="M 0,0 5,-5 -12.5,0 5,5 Z"
         id="path3044" />
    </marker>
    <rect
       x="137.01109"
       y="57.517841"
       width="21.13736"
       height="5.325285"
       id="rect2996" />
    <marker
       style="overflow:visible"
       id="marker4852-9"
       refX="0"
       refY="0"
       orient="auto"
       inkscape:stockid="Arrow1Lend"
       inkscape:isstock="true">
      <path
         transform="matrix(-0.8,0,0,-0.8,-10,0)"
         style="fill:#000000;fill-opacity:1;fill-rule:evenodd;stroke:#000000;stroke-width:1pt;stroke-opacity:1"
         d="M 0,0 5,-5 -12.5,0 5,5 Z"
         id="path4850-3" />
    </marker>
    <marker
       style="overflow:visible"
       id="marker5017-5"
       refX="0"
       refY="0"
       orient="auto"
       inkscape:stockid="Arrow1Lend"
       inkscape:isstock="true">
      <path
         transform="matrix(-0.8,0,0,-0.8,-10,0)"
         style="fill:#000000;fill-opacity:1;fill-rule:evenodd;stroke:#000000;stroke-width:1pt;stroke-opacity:1"
         d="M 0,0 5,-5 -12.5,0 5,5 Z"
         id="path5015-2" />
    </marker>
  </defs>
  <sodipodi:namedview
     id="base"
     pagecolor="#ffffff"
     bordercolor="#666666"
     borderopacity="1.0"
     inkscape:pageopacity="0.0"
     inkscape:pageshadow="2"
     inkscape:zoom="0.7"
     inkscape:cx="209.11969"
     inkscape:cy="390.25959"
     inkscape:document-units="mm"
     inkscape:current-layer="layer1"
     inkscape:document-rotation="0"
     showgrid="false"
     inkscape:window-width="1916"
     inkscape:window-height="1013"
     inkscape:window-x="0"
     inkscape:window-y="40"
     inkscape:window-maximized="1"
     fit-margin-top="0"
     fit-margin-left="0"
     fit-margin-right="0"
     fit-margin-bottom="0" />
  <metadata
     id="metadata2024">
    <rdf:RDF>
      <cc:Work
         rdf:about="">
        <dc:format>image/svg+xml</dc:format>
        <dc:type
           rdf:resource="http://purl.org/dc/dcmitype/StillImage" />
        <dc:title></dc:title>
      </cc:Work>
    </rdf:RDF>
  </metadata>
  <g
     inkscape:label="Calque 1"
     inkscape:groupmode="layer"
     id="layer1"
     transform="translate(1.4850039,-16.366666)">
    <g
       id="g3999"
       transform="translate(0.48999754,30.593619)">
      <g
         id="g2610"
         transform="translate(-8.6177072,-45.832131)">
        <ellipse
           style="fill:none;stroke:#000000;stroke-width:0.399336;stroke-linecap:round;stroke-linejoin:round;stroke-miterlimit:4;stroke-dasharray:0.0399336, 0.0399336;stroke-dashoffset:0;stroke-opacity:1"
           id="path2590"
           cx="26.461344"
           cy="72.163628"
           rx="18.019665"
           ry="11.742421" />
        <text
           xml:space="preserve"
           style="font-size:4.9389px;line-height:1.25;font-family:sans-serif;text-align:center;letter-spacing:0px;word-spacing:0px;text-anchor:middle;stroke-width:0.264583"
           x="26.519239"
           y="70.842102"
           id="text2594"><tspan
             sodipodi:role="line"
             id="tspan2592"
             x="26.519239"
             y="70.842102"
             style="text-align:center;text-anchor:middle;stroke-width:0.264583">Xorg mouse</tspan><tspan
             sodipodi:role="line"
             x="26.519239"
             y="77.015724"
             style="text-align:center;text-anchor:middle;stroke-width:0.264583"
             id="tspan3180"> event</tspan></text>
        <text
           xml:space="preserve"
           id="text2994"
           style="font-size:4.93889px;line-height:1.25;font-family:sans-serif;letter-spacing:0px;word-spacing:0px;white-space:pre;shape-inside:url(#rect2996);"><tspan
             style="visibility:hidden"
             x="137.01172"
             y="67.21351"><tspan
               dx="0 3.1350377">SR</tspan></tspan></text>
      </g>
    </g>
    <g
       id="g4415">
      <g
         id="g2605"
         transform="translate(-25.435791,-51.892642)">
        <rect
           style="fill:none;stroke:#000000;stroke-width:0.492;stroke-linecap:round;stroke-linejoin:round;stroke-miterlimit:4;stroke-dasharray:0.0492, 0.0492;stroke-dashoffset:0;stroke-opacity:1"
           id="rect2596"
           width="49.181984"
           height="30.160189"
           x="74.777924"
           y="89.785393" />
        <text
           xml:space="preserve"
           style="font-size:4.9389px;line-height:1.25;font-family:sans-serif;letter-spacing:0px;word-spacing:0px;stroke-width:0.264583"
           x="77.176567"
           y="96.030632"
           id="text2600"><tspan
             sodipodi:role="line"
             id="tspan2598"
             x="77.176567"
             y="96.030632"
             style="stroke-width:0.264583">XEventRecorder</tspan></text>
      </g>
      <g
         id="g3440"
         transform="translate(-23.3834,22.5504)">
        <rect
           style="fill:none;stroke:#000000;stroke-width:0.182492;stroke-linecap:round;stroke-linejoin:round;stroke-miterlimit:4;stroke-dasharray:0.729968, 0.364984, 0.182492, 0.364984;stroke-dashoffset:0;stroke-opacity:1"
           id="rect3392"
           width="40.022644"
           height="12.014177"
           x="77.039871"
           y="28.237509" />
        <text
           xml:space="preserve"
           style="font-size:4.9389px;line-height:1.25;font-family:sans-serif;letter-spacing:0px;word-spacing:0px;stroke-width:0.264583"
           x="77.688683"
           y="35.951164"
           id="text3396"><tspan
             sodipodi:role="line"
             id="tspan3394"
             x="77.688683"
             y="35.951164"
             style="stroke-width:0.264583">eventCallback()</tspan></text>
      </g>
    </g>
    <g
       id="g2605-3-2"
       transform="translate(136.90748,-44.621041)">
      <rect
         style="fill:none;stroke:#000000;stroke-width:0.291448;stroke-linecap:round;stroke-linejoin:round;stroke-miterlimit:4;stroke-dasharray:0.0291448, 0.0291448;stroke-dashoffset:0;stroke-opacity:1"
         id="rect2596-6-6"
         width="32.84684"
         height="15.818006"
         x="74.677414"
         y="89.684883" />
      <text
         xml:space="preserve"
         style="font-size:4.9389px;line-height:1.25;font-family:sans-serif;letter-spacing:0px;word-spacing:0px;stroke-width:0.264583"
         x="80.56588"
         y="98.956421"
         id="text2600-0-1"><tspan
           id="tspan2598-6-8"
           x="80.56588"
           y="98.956421"
           style="stroke-width:0.264583"
           sodipodi:role="line">ipcProxy</tspan></text>
    </g>
    <path
       style="display:inline;fill:none;fill-rule:evenodd;stroke:#000000;stroke-width:0.264583px;stroke-linecap:butt;stroke-linejoin:miter;stroke-opacity:1;marker-end:url(#marker3046)"
       d="m 177.52959,72.43185 34.0553,-13.127953"
       id="path3036"
       inkscape:connector-type="polyline"
       inkscape:connector-curvature="0"
       inkscape:connection-end="#g2605-3-2"
       inkscape:connection-start="#g3764-2" />
    <path
       style="display:inline;fill:none;fill-rule:evenodd;stroke:#000000;stroke-width:0.264583;stroke-linecap:butt;stroke-linejoin:miter;stroke-miterlimit:4;stroke-dasharray:1.05833, 1.05833;stroke-dashoffset:0;stroke-opacity:1;marker-end:url(#marker3102)"
       d="m 244.43173,52.972845 17.72222,0"
       id="path3092"
       inkscape:connector-type="polyline"
       inkscape:connector-curvature="0"
       inkscape:connection-start="#g2605-3-2"
       inkscape:connection-end="#g3986" />
    <text
       xml:space="preserve"
       style="font-size:4.9389px;line-height:1.25;font-family:sans-serif;letter-spacing:0px;word-spacing:0px;stroke-width:0.264583"
       x="192.45369"
       y="71.485527"
       id="text3160"><tspan
         sodipodi:role="line"
         id="tspan3158"
         x="192.45369"
         y="71.485527"
         style="stroke-width:0.264583">boolean</tspan><tspan
         sodipodi:role="line"
         x="192.45369"
         y="77.659149"
         style="stroke-width:0.264583"
         id="tspan3162">matrix</tspan></text>
    <g
       id="g3986"
       transform="translate(0,27.955952)">
      <ellipse
         style="fill:none;stroke:#000000;stroke-width:0.592;stroke-linecap:round;stroke-linejoin:round;stroke-miterlimit:4;stroke-dasharray:0.0592, 0.0592;stroke-dashoffset:0;stroke-opacity:1"
         id="path3078"
         cx="279.10214"
         cy="25.016876"
         rx="16.948196"
         ry="8.9577808" />
      <text
         xml:space="preserve"
         style="font-size:4.9389px;line-height:1.25;font-family:sans-serif;letter-spacing:0px;word-spacing:0px;stroke-width:0.264583"
         x="264.61584"
         y="26.858131"
         id="text3166"><tspan
           sodipodi:role="line"
           id="tspan3164"
           x="264.61584"
           y="26.858131"
           style="stroke-width:0.264583">Tactos-dbus</tspan></text>
    </g>
    <text
       xml:space="preserve"
       style="font-size:4.9389px;line-height:1.25;font-family:sans-serif;letter-spacing:0px;word-spacing:0px;stroke-width:0.264583"
       x="102.46552"
       y="57.625858"
       id="text3002"><tspan
         sodipodi:role="line"
         id="tspan3000"
         x="102.46552"
         y="57.625858"
         style="stroke-width:0.264583">(X,Y) mouse</tspan><tspan
         sodipodi:role="line"
         x="102.46552"
         y="63.799484"
         style="stroke-width:0.264583"
         id="tspan3544">coordinate</tspan></text>
    <path
       style="display:inline;fill:none;fill-rule:evenodd;stroke:#000000;stroke-width:0.264583px;stroke-linecap:butt;stroke-linejoin:miter;stroke-opacity:1;marker-end:url(#marker3312)"
       d="M 93.679115,53.746252 147.96128,45.476309"
       id="path3302"
       inkscape:connector-type="polyline"
       inkscape:connector-curvature="0"
       inkscape:connection-end="#g3624"
       inkscape:connection-start="#g3440" />
    <path
       style="fill:none;fill-rule:evenodd;stroke:#000000;stroke-width:0.264583px;stroke-linecap:butt;stroke-linejoin:miter;stroke-opacity:1;marker-end:url(#marker4021)"
       d="M 36.3529,56.882754 53.656471,56.84206"
       id="path3442"
       inkscape:connector-type="polyline"
       inkscape:connector-curvature="0"
       inkscape:connection-start="#g2610"
       inkscape:connection-end="#g3440" />
    <text
       xml:space="preserve"
       style="font-size:4.9389px;line-height:1.25;font-family:sans-serif;letter-spacing:0px;word-spacing:0px;stroke-width:0.264583"
       x="166.22955"
       y="69.026421"
       id="text3860"><tspan
         sodipodi:role="line"
         id="tspan3858"
         x="166.22955"
         y="69.026421"
         style="stroke-width:0.264583"></tspan></text>
    <g
       id="g3957">
      <rect
         style="fill:none;stroke:#000000;stroke-width:0.79889;stroke-linecap:round;stroke-linejoin:round;stroke-miterlimit:4;stroke-dasharray:0.079889, 0.079889;stroke-dashoffset:0;stroke-opacity:1"
         id="rect2596-6"
         width="53.91114"
         height="72.413467"
         x="135.73773"
         y="16.766111" />
      <text
         xml:space="preserve"
         style="font-size:4.9389px;line-height:1.25;font-family:sans-serif;letter-spacing:0px;word-spacing:0px;stroke-width:0.264583"
         x="137.06155"
         y="22.3542"
         id="text2600-0"><tspan
           id="tspan2598-6"
           x="137.06155"
           y="22.3542"
           style="stroke-width:0.264583"
           sodipodi:role="line">ScreenRec</tspan></text>
      <rect
         style="fill:none;stroke:#000000;stroke-width:0.725855;stroke-linecap:round;stroke-linejoin:round;stroke-miterlimit:4;stroke-dasharray:2.90342, 1.45171, 0.725855, 1.45171;stroke-dashoffset:0;stroke-opacity:1"
         id="rect3546"
         width="46.01989"
         height="55.624378"
         x="140.73154"
         y="30.939306" />
      <text
         xml:space="preserve"
         style="font-size:3.52778px;line-height:1.25;font-family:sans-serif;letter-spacing:0px;word-spacing:0px;stroke-width:0.264583"
         x="142.19807"
         y="35.87418"
         id="text3550"><tspan
           sodipodi:role="line"
           id="tspan3548"
           x="142.19807"
           y="35.87418"
           style="font-size:3.52778px;stroke-width:0.264583">ProcessScreenshot()</tspan></text>
      <g
         id="g3624"
         transform="translate(4.335811,-2.4742527)">
        <g
           id="g3723">
          <rect
             style="fill:none;stroke:#000000;stroke-width:0.264583;stroke-linecap:round;stroke-linejoin:round;stroke-miterlimit:4;stroke-dasharray:1.05833, 0.529166, 0.264583, 0.529166;stroke-dashoffset:0;stroke-opacity:1"
             id="rect3576"
             width="30.543913"
             height="10.711678"
             x="143.62547"
             y="40.268024" />
          <text
             xml:space="preserve"
             style="font-size:4.9389px;line-height:1.25;font-family:sans-serif;letter-spacing:0px;word-spacing:0px;stroke-width:0.264583"
             x="147.59439"
             y="46.98399"
             id="text3580"><tspan
               sodipodi:role="line"
               id="tspan3578"
               x="147.59439"
               y="46.98399"
               style="stroke-width:0.264583">capture()</tspan></text>
        </g>
      </g>
      <g
         id="g3764"
         transform="translate(1.9666689)">
        <rect
           style="fill:none;stroke:#000000;stroke-width:0.264583;stroke-linecap:round;stroke-linejoin:round;stroke-miterlimit:4;stroke-dasharray:1.05833, 0.529166, 0.264583, 0.529166;stroke-dashoffset:0;stroke-opacity:1"
           id="rect3576-9"
           width="30.543913"
           height="10.711678"
           x="146.13785"
           y="55.044342" />
        <text
           xml:space="preserve"
           style="font-size:4.9389px;line-height:1.25;font-family:sans-serif;letter-spacing:0px;word-spacing:0px;stroke-width:0.264583"
           x="150.4263"
           y="61.762718"
           id="text3580-2"><tspan
             sodipodi:role="line"
             id="tspan3578-0"
             x="150.4263"
             y="61.762718"
             style="stroke-width:0.264583">scrSplit()</tspan></text>
      </g>
      <path
         style="fill:none;fill-rule:evenodd;stroke:#000000;stroke-width:0.264583px;stroke-linecap:butt;stroke-linejoin:miter;stroke-opacity:1;marker-end:url(#marker3686)"
         d="m 163.27771,48.505449 0.0543,6.538893"
         id="path3682"
         inkscape:connector-type="polyline"
         inkscape:connector-curvature="0"
         inkscape:connection-start="#g3624"
         inkscape:connection-end="#rect3576-9" />
      <text
         xml:space="preserve"
         style="font-size:2.82222px;line-height:1.25;font-family:sans-serif;letter-spacing:0px;word-spacing:0px;stroke-width:0.264583"
         x="145.97661"
         y="53.072792"
         id="text3712"><tspan
           sodipodi:role="line"
           id="tspan3710"
           x="145.97661"
           y="53.072792"
           style="font-size:2.82222px;stroke-width:0.264583">screenshot</tspan></text>
      <g
         id="g3764-2"
         transform="translate(1.7362396,17.378456)">
        <rect
           style="fill:none;stroke:#000000;stroke-width:0.296029;stroke-linecap:round;stroke-linejoin:round;stroke-miterlimit:4;stroke-dasharray:1.18412, 0.592058, 0.296029, 0.592058;stroke-dashoffset:0;stroke-opacity:1"
           id="rect3576-9-3"
           width="38.300362"
           height="10.693571"
           x="142.77304"
           y="55.053394" />
        <text
           xml:space="preserve"
           style="font-size:2.82222px;line-height:1.25;font-family:sans-serif;letter-spacing:0px;word-spacing:0px;stroke-width:0.264583"
           x="144.51723"
           y="61.178772"
           id="text3580-2-7"><tspan
             sodipodi:role="line"
             id="tspan3578-0-5"
             x="144.51723"
             y="61.178772"
             style="font-size:2.82222px;stroke-width:0.264583">applyToGrid(isInRange())</tspan></text>
      </g>
      <path
         style="fill:none;fill-rule:evenodd;stroke:#000000;stroke-width:0.264583px;stroke-linecap:butt;stroke-linejoin:miter;stroke-opacity:1;marker-end:url(#marker3808)"
         d="m 163.46369,65.75602 0.1087,6.67583"
         id="path3798"
         inkscape:connector-type="polyline"
         inkscape:connector-curvature="0"
         inkscape:connection-start="#g3764"
         inkscape:connection-end="#g3764-2" />
      <text
         xml:space="preserve"
         style="font-size:2.11667px;line-height:1.25;font-family:sans-serif;letter-spacing:0px;word-spacing:0px;stroke-width:0.264583"
         x="141.3887"
         y="71.234467"
         id="text3712-9"><tspan
           sodipodi:role="line"
           id="tspan3710-2"
           x="141.3887"
           y="71.234467"
           style="font-size:2.11667px;stroke-width:0.264583">subscreenshots[16]</tspan></text>
    </g>
  </g>
</svg>
